{
  "xsappname": "python-hello-world",
  "tenant-mode": "dedicated",
  "scopes": [
    {
      "name": "$XSAPPNAME.Display",
      "description": "display"
    },
    {
      "name": "$XSAPPNAME.Edit",
      "description": "edit"
    },
    {
      "name": "$XSAPPNAME.Delete",
      "description": "delete"
    }
  ],
  "attributes": [
    {
      "name": "Country",
      "description": "Country",
      "valueType": "s"
    },
    {
      "name": "CostCenter",
      "description": "CostCenter",
      "valueType": "s"
    }
  ],
  "role-templates": [
    {
      "name": "Viewer",
      "description": "View all books",
      "scope-references": [
        "$XSAPPNAME.Display",
        "$XSAPPNAME.Edit",
        "$XSAPPNAME.Delete"
      ],
      "attribute-references": [
        "Country"
      ]
    },
    {
      "name": "Editor",
      "description": "Edit and Delete the books",
      "scope-references": [
        "$XSAPPNAME.Edit",
        "$XSAPPNAME.Delete"
      ],
      "attribute-references": [
        "Country",
        "CostCenter"
      ]
    }
  ]
}